<?xml version="1.0"?>
<robot name="abot" xmlns:xacro="http://www.ros.org/wiki/xacro">

<!-- Camera Quickcam q9000-->
<xacro:macro name="camera_q9000" params="name parent offset_x:=${(chassis_length/2)-(q9000_size_x/4)} offset_y:=0 offset_z:=${chassis_length/2}">
  <!-- Camera -->
  <joint name="${name}_joint" type="fixed">
    <parent link="${parent}"/>
    <child link="${name}_link"/>
    <origin xyz="${offset_x} ${offset_y} ${offset_z}" rpy="0 0 0" />
    <axis xyz="0 1 0" />
  </joint>

  <link name="${name}_link">
    <visual>
      <geometry>
        <mesh filename="package://abot_description/meshes/devices/q9000.dae" scale="0.01 0.01 0.01"/>
      </geometry>
      <material name="lime" />
    </visual>

    <collision>
      <origin xyz="-0.01 0.02 0" rpy="0 0 0"/>
      <geometry>
        <box size="${q9000_size_x} ${q9000_size_y} ${q9000_size_z}"/>
      </geometry>
    </collision>

    <inertial>
      <origin xyz="-0.01 0.02 0" rpy="0 0 0"/>
      <mass value="${q9000_mass}"/>
      <xacro:box_inertial mass="${q9000_mass}" x="${q9000_size_x}" y="${q9000_size_y}" z="${q9000_size_z}" />
    </inertial>
  </link>

</xacro:macro>
</robot>
